^\\PSF\HOME\DESKTOP\WORK\COCOS2DX\BBK\CLASSES\APPDELEGATE.CPP
/c /I\\psf\Home\Desktop\work\cocos2dX\bbk\cocos2d\cocos\2d\..\..\cocos\audio\include /I\\psf\Home\Desktop\work\cocos2dX\bbk\cocos2d\cocos\2d\..\..\external /I\\psf\Home\Desktop\work\cocos2dX\bbk\cocos2d\cocos\2d\..\..\external\chipmunk\include\chipmunk /I\\psf\Home\Desktop\work\cocos2dX\bbk\cocos2d\cocos\2d\..\..\extensions /I..\Classes /I.. /I\\psf\Home\Desktop\work\cocos2dX\bbk\cocos2d\cocos\2d\..\..\cocos /I\\psf\Home\Desktop\work\cocos2dX\bbk\cocos2d\cocos\2d\..\..\cocos\2d /I\\psf\Home\Desktop\work\cocos2dX\bbk\cocos2d\cocos\2d\..\..\cocos\2d\renderer /I\\psf\Home\Desktop\work\cocos2dX\bbk\cocos2d\cocos\2d\..\..\cocos\ui /I\\psf\Home\Desktop\work\cocos2dX\bbk\cocos2d\cocos\2d\..\..\cocos\base /I\\psf\Home\Desktop\work\cocos2dX\bbk\cocos2d\cocos\2d\..\..\cocos\physics /I\\psf\Home\Desktop\work\cocos2dX\bbk\cocos2d\cocos\2d\..\..\cocos\math\kazmath /I\\psf\Home\Desktop\work\cocos2dX\bbk\cocos2d\cocos\2d\..\..\cocos\2d\platform\win32 /I\\psf\Home\Desktop\work\cocos2dX\bbk\cocos2d\cocos\2d\..\..\cocos\2d\platform\desktop /I\\psf\Home\Desktop\work\cocos2dX\bbk\cocos2d\cocos\2d\..\..\external\glfw3\include\win32 /I"\\psf\Home\Desktop\work\cocos2dX\bbk\cocos2d\cocos\2d\..\..\external\win32-specific\gles\include\OGLES" /ZI /nologo /W3 /WX- /Od /Oy- /D WIN32 /D _DEBUG /D _WINDOWS /D _USE_MATH_DEFINES /D GL_GLEXT_PROTOTYPES /D CC_ENABLE_CHIPMUNK_INTEGRATION=1 /D COCOS2D_DEBUG=1 /D _CRT_SECURE_NO_WARNINGS /D _SCL_SECURE_NO_WARNINGS /D _VARIADIC_MAX=10 /D _UNICODE /D UNICODE /Gm- /EHsc /RTC1 /MDd /GS /fp:precise /Zc:wchar_t /Zc:forScope /Fo"DEBUG.WIN32\\" /Fd"DEBUG.WIN32\VC120.PDB" /Gd /TP /wd4267 /wd4251 /wd4244 /analyze- \\PSF\HOME\DESKTOP\WORK\COCOS2DX\BBK\CLASSES\APPDELEGATE.CPP
^\\PSF\HOME\DESKTOP\WORK\COCOS2DX\BBK\CLASSES\HELLOWORLDSCENE.CPP
/c /I\\psf\Home\Desktop\work\cocos2dX\bbk\cocos2d\cocos\2d\..\..\cocos\audio\include /I\\psf\Home\Desktop\work\cocos2dX\bbk\cocos2d\cocos\2d\..\..\external /I\\psf\Home\Desktop\work\cocos2dX\bbk\cocos2d\cocos\2d\..\..\external\chipmunk\include\chipmunk /I\\psf\Home\Desktop\work\cocos2dX\bbk\cocos2d\cocos\2d\..\..\extensions /I..\Classes /I.. /I\\psf\Home\Desktop\work\cocos2dX\bbk\cocos2d\cocos\2d\..\..\cocos /I\\psf\Home\Desktop\work\cocos2dX\bbk\cocos2d\cocos\2d\..\..\cocos\2d /I\\psf\Home\Desktop\work\cocos2dX\bbk\cocos2d\cocos\2d\..\..\cocos\2d\renderer /I\\psf\Home\Desktop\work\cocos2dX\bbk\cocos2d\cocos\2d\..\..\cocos\ui /I\\psf\Home\Desktop\work\cocos2dX\bbk\cocos2d\cocos\2d\..\..\cocos\base /I\\psf\Home\Desktop\work\cocos2dX\bbk\cocos2d\cocos\2d\..\..\cocos\physics /I\\psf\Home\Desktop\work\cocos2dX\bbk\cocos2d\cocos\2d\..\..\cocos\math\kazmath /I\\psf\Home\Desktop\work\cocos2dX\bbk\cocos2d\cocos\2d\..\..\cocos\2d\platform\win32 /I\\psf\Home\Desktop\work\cocos2dX\bbk\cocos2d\cocos\2d\..\..\cocos\2d\platform\desktop /I\\psf\Home\Desktop\work\cocos2dX\bbk\cocos2d\cocos\2d\..\..\external\glfw3\include\win32 /I"\\psf\Home\Desktop\work\cocos2dX\bbk\cocos2d\cocos\2d\..\..\external\win32-specific\gles\include\OGLES" /ZI /nologo /W3 /WX- /Od /Oy- /D WIN32 /D _DEBUG /D _WINDOWS /D _USE_MATH_DEFINES /D GL_GLEXT_PROTOTYPES /D CC_ENABLE_CHIPMUNK_INTEGRATION=1 /D COCOS2D_DEBUG=1 /D _CRT_SECURE_NO_WARNINGS /D _SCL_SECURE_NO_WARNINGS /D _VARIADIC_MAX=10 /D _UNICODE /D UNICODE /Gm- /EHsc /RTC1 /MDd /GS /fp:precise /Zc:wchar_t /Zc:forScope /Fo"DEBUG.WIN32\\" /Fd"DEBUG.WIN32\VC120.PDB" /Gd /TP /wd4267 /wd4251 /wd4244 /analyze- \\PSF\HOME\DESKTOP\WORK\COCOS2DX\BBK\CLASSES\HELLOWORLDSCENE.CPP
^\\PSF\HOME\DESKTOP\WORK\COCOS2DX\BBK\CLASSES\INTROSCREEN.CPP
/c /I\\psf\Home\Desktop\work\cocos2dX\bbk\cocos2d\cocos\2d\..\..\cocos\audio\include /I\\psf\Home\Desktop\work\cocos2dX\bbk\cocos2d\cocos\2d\..\..\external /I\\psf\Home\Desktop\work\cocos2dX\bbk\cocos2d\cocos\2d\..\..\external\chipmunk\include\chipmunk /I\\psf\Home\Desktop\work\cocos2dX\bbk\cocos2d\cocos\2d\..\..\extensions /I..\Classes /I.. /I\\psf\Home\Desktop\work\cocos2dX\bbk\cocos2d\cocos\2d\..\..\cocos /I\\psf\Home\Desktop\work\cocos2dX\bbk\cocos2d\cocos\2d\..\..\cocos\2d /I\\psf\Home\Desktop\work\cocos2dX\bbk\cocos2d\cocos\2d\..\..\cocos\2d\renderer /I\\psf\Home\Desktop\work\cocos2dX\bbk\cocos2d\cocos\2d\..\..\cocos\ui /I\\psf\Home\Desktop\work\cocos2dX\bbk\cocos2d\cocos\2d\..\..\cocos\base /I\\psf\Home\Desktop\work\cocos2dX\bbk\cocos2d\cocos\2d\..\..\cocos\physics /I\\psf\Home\Desktop\work\cocos2dX\bbk\cocos2d\cocos\2d\..\..\cocos\math\kazmath /I\\psf\Home\Desktop\work\cocos2dX\bbk\cocos2d\cocos\2d\..\..\cocos\2d\platform\win32 /I\\psf\Home\Desktop\work\cocos2dX\bbk\cocos2d\cocos\2d\..\..\cocos\2d\platform\desktop /I\\psf\Home\Desktop\work\cocos2dX\bbk\cocos2d\cocos\2d\..\..\external\glfw3\include\win32 /I"\\psf\Home\Desktop\work\cocos2dX\bbk\cocos2d\cocos\2d\..\..\external\win32-specific\gles\include\OGLES" /ZI /nologo /W3 /WX- /Od /Oy- /D WIN32 /D _DEBUG /D _WINDOWS /D _USE_MATH_DEFINES /D GL_GLEXT_PROTOTYPES /D CC_ENABLE_CHIPMUNK_INTEGRATION=1 /D COCOS2D_DEBUG=1 /D _CRT_SECURE_NO_WARNINGS /D _SCL_SECURE_NO_WARNINGS /D _VARIADIC_MAX=10 /D _UNICODE /D UNICODE /Gm- /EHsc /RTC1 /MDd /GS /fp:precise /Zc:wchar_t /Zc:forScope /Fo"DEBUG.WIN32\\" /Fd"DEBUG.WIN32\VC120.PDB" /Gd /TP /wd4267 /wd4251 /wd4244 /analyze- \\PSF\HOME\DESKTOP\WORK\COCOS2DX\BBK\CLASSES\INTROSCREEN.CPP
^\\PSF\HOME\DESKTOP\WORK\COCOS2DX\BBK\PROJ.WIN32\MAIN.CPP
/c /I\\psf\Home\Desktop\work\cocos2dX\bbk\cocos2d\cocos\2d\..\..\cocos\audio\include /I\\psf\Home\Desktop\work\cocos2dX\bbk\cocos2d\cocos\2d\..\..\external /I\\psf\Home\Desktop\work\cocos2dX\bbk\cocos2d\cocos\2d\..\..\external\chipmunk\include\chipmunk /I\\psf\Home\Desktop\work\cocos2dX\bbk\cocos2d\cocos\2d\..\..\extensions /I..\Classes /I.. /I\\psf\Home\Desktop\work\cocos2dX\bbk\cocos2d\cocos\2d\..\..\cocos /I\\psf\Home\Desktop\work\cocos2dX\bbk\cocos2d\cocos\2d\..\..\cocos\2d /I\\psf\Home\Desktop\work\cocos2dX\bbk\cocos2d\cocos\2d\..\..\cocos\2d\renderer /I\\psf\Home\Desktop\work\cocos2dX\bbk\cocos2d\cocos\2d\..\..\cocos\ui /I\\psf\Home\Desktop\work\cocos2dX\bbk\cocos2d\cocos\2d\..\..\cocos\base /I\\psf\Home\Desktop\work\cocos2dX\bbk\cocos2d\cocos\2d\..\..\cocos\physics /I\\psf\Home\Desktop\work\cocos2dX\bbk\cocos2d\cocos\2d\..\..\cocos\math\kazmath /I\\psf\Home\Desktop\work\cocos2dX\bbk\cocos2d\cocos\2d\..\..\cocos\2d\platform\win32 /I\\psf\Home\Desktop\work\cocos2dX\bbk\cocos2d\cocos\2d\..\..\cocos\2d\platform\desktop /I\\psf\Home\Desktop\work\cocos2dX\bbk\cocos2d\cocos\2d\..\..\external\glfw3\include\win32 /I"\\psf\Home\Desktop\work\cocos2dX\bbk\cocos2d\cocos\2d\..\..\external\win32-specific\gles\include\OGLES" /ZI /nologo /W3 /WX- /Od /Oy- /D WIN32 /D _DEBUG /D _WINDOWS /D _USE_MATH_DEFINES /D GL_GLEXT_PROTOTYPES /D CC_ENABLE_CHIPMUNK_INTEGRATION=1 /D COCOS2D_DEBUG=1 /D _CRT_SECURE_NO_WARNINGS /D _SCL_SECURE_NO_WARNINGS /D _VARIADIC_MAX=10 /D _UNICODE /D UNICODE /Gm- /EHsc /RTC1 /MDd /GS /fp:precise /Zc:wchar_t /Zc:forScope /Fo"DEBUG.WIN32\\" /Fd"DEBUG.WIN32\VC120.PDB" /Gd /TP /wd4267 /wd4251 /wd4244 /analyze- \\PSF\HOME\DESKTOP\WORK\COCOS2DX\BBK\PROJ.WIN32\MAIN.CPP
